{
    "test_sets":[
        {
            "name":"default",
            "test_cases":[
                {
                    "name":"latencies",
                    "measurements":[
                        {
                            "name":"max_latency",
                            "unit":"us"
                        },
                        {
                            "name":"min_latency",
                            "unit":"us"
                        },
                        {
                            "name":"avg_latency",
                            "unit":"us"
                        }
                    ]
                }
            ]
        }
    ]
}
