{
    "testName": "Functional.check_mounts",
    "specs": {
        "default": {
	    },
	    "save_baseline": {
	    },
	    "real_devs": {
            "FILTER_NAME": "dev",
            "FILTER_REGEX": "^/dev"
	    },
	    "partial": {
            "FILTER_NAME": "partial",
            "FILTER_REGEX": "-v -e ^cgroup -e ^tmpfs"
	    },
	    "cgroups": {
            "FILTER_NAME": "cgroup",
            "FILTER_REGEX": "^cgroup"
        }
    }
}
